%YAML 1.1
%TAG !u! tag:unity3d.com,2011:
--- !u!74 &7400000
AnimationClip:
  m_ObjectHideFlags: 0
  m_CorrespondingSourceObject: {fileID: 0}
  m_PrefabInstance: {fileID: 0}
  m_PrefabAsset: {fileID: 0}
  m_Name: ZombiePatrol
  serializedVersion: 6
  m_Legacy: 0
  m_Compressed: 0
  m_UseHighQualityCurve: 1
  m_RotationCurves: []
  m_CompressedRotationCurves: []
  m_EulerCurves: []
  m_PositionCurves: []
  m_ScaleCurves: []
  m_FloatCurves: []
  m_PPtrCurves:
  - curve:
    - time: 0
      value: {fileID: 21300000, guid: fe74a3f383b8e7e4689bf7df956c4bfd, type: 3}
    - time: 0.21666667
      value: {fileID: 21300000, guid: 8e3c2d143477a174ebb5c38008d6932a, type: 3}
    - time: 0.36666667
      value: {fileID: 21300000, guid: 97f28422b4ff0514ba911333b2d7b29f, type: 3}
    - time: 0.56666666
      value: {fileID: 21300000, guid: b6810735bb45c8e4d865e5e44da5f9db, type: 3}
    - time: 0.7
      value: {fileID: 21300000, guid: 038dec0e4e016f34c8eb22ccf7b4c8ee, type: 3}
    - time: 0.93333334
      value: {fileID: 21300000, guid: 6199d36365ec99645af188a86e3a04dc, type: 3}
    - time: 1.0666667
      value: {fileID: 21300000, guid: cf58f66f009086b4c952ec23c3319424, type: 3}
    - time: 1.2666667
      value: {fileID: 21300000, guid: 5d8da2e7bd0d1aa4da19abd88272b64a, type: 3}
    - time: 1.4166666
      value: {fileID: 21300000, guid: 97f7f55cbd90b8741b1190858c8882f3, type: 3}
    - time: 1.6333333
      value: {fileID: 21300000, guid: 810c9c7c91a1ab9498d1b9d1ce82a4fc, type: 3}
    attribute: m_Sprite
    path: 
    classID: 212
    script: {fileID: 0}
  m_SampleRate: 60
  m_WrapMode: 0
  m_Bounds:
    m_Center: {x: 0, y: 0, z: 0}
    m_Extent: {x: 0, y: 0, z: 0}
  m_ClipBindingConstant:
    genericBindings:
    - serializedVersion: 2
      path: 0
      attribute: 0
      script: {fileID: 0}
      typeID: 212
      customType: 23
      isPPtrCurve: 1
    pptrCurveMapping:
    - {fileID: 21300000, guid: fe74a3f383b8e7e4689bf7df956c4bfd, type: 3}
    - {fileID: 21300000, guid: 8e3c2d143477a174ebb5c38008d6932a, type: 3}
    - {fileID: 21300000, guid: 97f28422b4ff0514ba911333b2d7b29f, type: 3}
    - {fileID: 21300000, guid: b6810735bb45c8e4d865e5e44da5f9db, type: 3}
    - {fileID: 21300000, guid: 038dec0e4e016f34c8eb22ccf7b4c8ee, type: 3}
    - {fileID: 21300000, guid: 6199d36365ec99645af188a86e3a04dc, type: 3}
    - {fileID: 21300000, guid: cf58f66f009086b4c952ec23c3319424, type: 3}
    - {fileID: 21300000, guid: 5d8da2e7bd0d1aa4da19abd88272b64a, type: 3}
    - {fileID: 21300000, guid: 97f7f55cbd90b8741b1190858c8882f3, type: 3}
    - {fileID: 21300000, guid: 810c9c7c91a1ab9498d1b9d1ce82a4fc, type: 3}
  m_AnimationClipSettings:
    serializedVersion: 2
    m_AdditiveReferencePoseClip: {fileID: 0}
    m_AdditiveReferencePoseTime: 0
    m_StartTime: 0
    m_StopTime: 1.65
    m_OrientationOffsetY: 0
    m_Level: 0
    m_CycleOffset: 0
    m_HasAdditiveReferencePose: 0
    m_LoopTime: 1
    m_LoopBlend: 0
    m_LoopBlendOrientation: 0
    m_LoopBlendPositionY: 0
    m_LoopBlendPositionXZ: 0
    m_KeepOriginalOrientation: 0
    m_KeepOriginalPositionY: 1
    m_KeepOriginalPositionXZ: 0
    m_HeightFromFeet: 0
    m_Mirror: 0
  m_EditorCurves: []
  m_EulerEditorCurves: []
  m_HasGenericRootTransform: 0
  m_HasMotionFloatCurves: 0
  m_Events: []
