%YAML 1.1
%TAG !u! tag:unity3d.com,2011:
--- !u!74 &7400000
AnimationClip:
  m_ObjectHideFlags: 0
  m_CorrespondingSourceObject: {fileID: 0}
  m_PrefabInstance: {fileID: 0}
  m_PrefabAsset: {fileID: 0}
  m_Name: PlayerRunning
  serializedVersion: 6
  m_Legacy: 0
  m_Compressed: 0
  m_UseHighQualityCurve: 1
  m_RotationCurves: []
  m_CompressedRotationCurves: []
  m_EulerCurves: []
  m_PositionCurves: []
  m_ScaleCurves: []
  m_FloatCurves: []
  m_PPtrCurves:
  - curve:
    - time: 0
      value: {fileID: 6664195757074223314, guid: 2b22e58cf7fbd7946b874f61d6cbbebc,
        type: 3}
    - time: 0.05
      value: {fileID: 6014931395803470634, guid: 2b22e58cf7fbd7946b874f61d6cbbebc,
        type: 3}
    - time: 0.083333336
      value: {fileID: 1951682040473132533, guid: 2b22e58cf7fbd7946b874f61d6cbbebc,
        type: 3}
    - time: 0.11666667
      value: {fileID: -3316465117061522920, guid: 2b22e58cf7fbd7946b874f61d6cbbebc,
        type: 3}
    - time: 0.15
      value: {fileID: 1494868032933849013, guid: 2b22e58cf7fbd7946b874f61d6cbbebc,
        type: 3}
    - time: 0.2
      value: {fileID: -95319497386724095, guid: 2b22e58cf7fbd7946b874f61d6cbbebc,
        type: 3}
    - time: 0.23333333
      value: {fileID: -8652043470361479866, guid: 2b22e58cf7fbd7946b874f61d6cbbebc,
        type: 3}
    - time: 0.28333333
      value: {fileID: 4926050471043252869, guid: 2b22e58cf7fbd7946b874f61d6cbbebc,
        type: 3}
    - time: 0.31666666
      value: {fileID: 8244664223469170920, guid: 2b22e58cf7fbd7946b874f61d6cbbebc,
        type: 3}
    - time: 0.35
      value: {fileID: 804629190882001453, guid: 2b22e58cf7fbd7946b874f61d6cbbebc,
        type: 3}
    - time: 0.38333333
      value: {fileID: -6816863111707041702, guid: 2b22e58cf7fbd7946b874f61d6cbbebc,
        type: 3}
    - time: 0.43333334
      value: {fileID: 3800384936974750863, guid: 2b22e58cf7fbd7946b874f61d6cbbebc,
        type: 3}
    - time: 0.46666667
      value: {fileID: 4311450264867324396, guid: 2b22e58cf7fbd7946b874f61d6cbbebc,
        type: 3}
    - time: 0.51666665
      value: {fileID: 2726901703270977640, guid: 2b22e58cf7fbd7946b874f61d6cbbebc,
        type: 3}
    - time: 0.55
      value: {fileID: -5271354595418756811, guid: 2b22e58cf7fbd7946b874f61d6cbbebc,
        type: 3}
    - time: 0.5833333
      value: {fileID: 2011061447335511073, guid: 2b22e58cf7fbd7946b874f61d6cbbebc,
        type: 3}
    - time: 0.6166667
      value: {fileID: -4431274013790139526, guid: 2b22e58cf7fbd7946b874f61d6cbbebc,
        type: 3}
    - time: 0.6666667
      value: {fileID: 7777898413560165094, guid: 2b22e58cf7fbd7946b874f61d6cbbebc,
        type: 3}
    attribute: m_Sprite
    path: 
    classID: 212
    script: {fileID: 0}
  m_SampleRate: 60
  m_WrapMode: 0
  m_Bounds:
    m_Center: {x: 0, y: 0, z: 0}
    m_Extent: {x: 0, y: 0, z: 0}
  m_ClipBindingConstant:
    genericBindings:
    - serializedVersion: 2
      path: 0
      attribute: 0
      script: {fileID: 0}
      typeID: 212
      customType: 23
      isPPtrCurve: 1
    pptrCurveMapping:
    - {fileID: 6664195757074223314, guid: 2b22e58cf7fbd7946b874f61d6cbbebc, type: 3}
    - {fileID: 6014931395803470634, guid: 2b22e58cf7fbd7946b874f61d6cbbebc, type: 3}
    - {fileID: 1951682040473132533, guid: 2b22e58cf7fbd7946b874f61d6cbbebc, type: 3}
    - {fileID: -3316465117061522920, guid: 2b22e58cf7fbd7946b874f61d6cbbebc, type: 3}
    - {fileID: 1494868032933849013, guid: 2b22e58cf7fbd7946b874f61d6cbbebc, type: 3}
    - {fileID: -95319497386724095, guid: 2b22e58cf7fbd7946b874f61d6cbbebc, type: 3}
    - {fileID: -8652043470361479866, guid: 2b22e58cf7fbd7946b874f61d6cbbebc, type: 3}
    - {fileID: 4926050471043252869, guid: 2b22e58cf7fbd7946b874f61d6cbbebc, type: 3}
    - {fileID: 8244664223469170920, guid: 2b22e58cf7fbd7946b874f61d6cbbebc, type: 3}
    - {fileID: 804629190882001453, guid: 2b22e58cf7fbd7946b874f61d6cbbebc, type: 3}
    - {fileID: -6816863111707041702, guid: 2b22e58cf7fbd7946b874f61d6cbbebc, type: 3}
    - {fileID: 3800384936974750863, guid: 2b22e58cf7fbd7946b874f61d6cbbebc, type: 3}
    - {fileID: 4311450264867324396, guid: 2b22e58cf7fbd7946b874f61d6cbbebc, type: 3}
    - {fileID: 2726901703270977640, guid: 2b22e58cf7fbd7946b874f61d6cbbebc, type: 3}
    - {fileID: -5271354595418756811, guid: 2b22e58cf7fbd7946b874f61d6cbbebc, type: 3}
    - {fileID: 2011061447335511073, guid: 2b22e58cf7fbd7946b874f61d6cbbebc, type: 3}
    - {fileID: -4431274013790139526, guid: 2b22e58cf7fbd7946b874f61d6cbbebc, type: 3}
    - {fileID: 7777898413560165094, guid: 2b22e58cf7fbd7946b874f61d6cbbebc, type: 3}
  m_AnimationClipSettings:
    serializedVersion: 2
    m_AdditiveReferencePoseClip: {fileID: 0}
    m_AdditiveReferencePoseTime: 0
    m_StartTime: 0
    m_StopTime: 0.68333334
    m_OrientationOffsetY: 0
    m_Level: 0
    m_CycleOffset: 0
    m_HasAdditiveReferencePose: 0
    m_LoopTime: 1
    m_LoopBlend: 0
    m_LoopBlendOrientation: 0
    m_LoopBlendPositionY: 0
    m_LoopBlendPositionXZ: 0
    m_KeepOriginalOrientation: 0
    m_KeepOriginalPositionY: 1
    m_KeepOriginalPositionXZ: 0
    m_HeightFromFeet: 0
    m_Mirror: 0
  m_EditorCurves: []
  m_EulerEditorCurves: []
  m_HasGenericRootTransform: 0
  m_HasMotionFloatCurves: 0
  m_Events: []
