%YAML 1.1
%TAG !u! tag:unity3d.com,2011:
--- !u!78 &1
TagManager:
  serializedVersion: 2
  tags:
  - Ground
  - Boost
  - Decrease
  - Platform
  - Life
  - VBoost
  - Water
  layers:
  - Default
  - TransparentFX
  - Ignore Raycast
  - 
  - Water
  - UI
  - 
  - 
  - Floor
  - 
  - 
  - 
  - 
  - 
  - 
  - 
  - 
  - 
  - 
  - 
  - 
  - 
  - 
  - 
  - 
  - 
  - 
  - 
  - 
  - 
  - 
  - 
  m_SortingLayers:
  - name: Default
    uniqueID: 0
    locked: 0
  - name: Background
    uniqueID: 1855007199
    locked: 0
  - name: Enviroment
    uniqueID: 968744861
    locked: 0
  - name: Objects
    uniqueID: 1376122249
    locked: 0
  - name: Characters
    uniqueID: 1754363435
    locked: 0
  - name: Water
    uniqueID: 278734101
    locked: 0
