%YAML 1.1
%TAG !u! tag:unity3d.com,2011:
--- !u!1001 &6667487634504568646
PrefabInstance:
  m_ObjectHideFlags: 0
  serializedVersion: 2
  m_Modification:
    m_TransformParent: {fileID: 0}
    m_Modifications:
    - target: {fileID: 4900792102489760506, guid: af198fe0a3039d14aa44d867208c2fce,
        type: 3}
      propertyPath: m_Name
      value: RightRamp  Variant
      objectReference: {fileID: 0}
    - target: {fileID: 4900792102489760509, guid: af198fe0a3039d14aa44d867208c2fce,
        type: 3}
      propertyPath: m_LocalPosition.x
      value: 25.716522
      objectReference: {fileID: 0}
    - target: {fileID: 4900792102489760509, guid: af198fe0a3039d14aa44d867208c2fce,
        type: 3}
      propertyPath: m_LocalPosition.y
      value: 0.9132347
      objectReference: {fileID: 0}
    - target: {fileID: 4900792102489760509, guid: af198fe0a3039d14aa44d867208c2fce,
        type: 3}
      propertyPath: m_LocalPosition.z
      value: 0
      objectReference: {fileID: 0}
    - target: {fileID: 4900792102489760509, guid: af198fe0a3039d14aa44d867208c2fce,
        type: 3}
      propertyPath: m_LocalRotation.x
      value: 0
      objectReference: {fileID: 0}
    - target: {fileID: 4900792102489760509, guid: af198fe0a3039d14aa44d867208c2fce,
        type: 3}
      propertyPath: m_LocalRotation.y
      value: 1
      objectReference: {fileID: 0}
    - target: {fileID: 4900792102489760509, guid: af198fe0a3039d14aa44d867208c2fce,
        type: 3}
      propertyPath: m_LocalRotation.z
      value: 0
      objectReference: {fileID: 0}
    - target: {fileID: 4900792102489760509, guid: af198fe0a3039d14aa44d867208c2fce,
        type: 3}
      propertyPath: m_LocalRotation.w
      value: 0
      objectReference: {fileID: 0}
    - target: {fileID: 4900792102489760509, guid: af198fe0a3039d14aa44d867208c2fce,
        type: 3}
      propertyPath: m_RootOrder
      value: 0
      objectReference: {fileID: 0}
    - target: {fileID: 4900792102489760509, guid: af198fe0a3039d14aa44d867208c2fce,
        type: 3}
      propertyPath: m_LocalEulerAnglesHint.x
      value: 0
      objectReference: {fileID: 0}
    - target: {fileID: 4900792102489760509, guid: af198fe0a3039d14aa44d867208c2fce,
        type: 3}
      propertyPath: m_LocalEulerAnglesHint.y
      value: 180
      objectReference: {fileID: 0}
    - target: {fileID: 4900792102489760509, guid: af198fe0a3039d14aa44d867208c2fce,
        type: 3}
      propertyPath: m_LocalEulerAnglesHint.z
      value: 0
      objectReference: {fileID: 0}
    m_RemovedComponents: []
  m_SourcePrefab: {fileID: 100100000, guid: af198fe0a3039d14aa44d867208c2fce, type: 3}
